hw-05.utf8
…
ord <- bind_rows(ord2016, ord2017, ord2018, ord2019, ord2020) %>%
  mutate(year = year(date), month = month(date,label = TRUE), day = day(date), wday = wday(date,label = TRUE)) %>%
  select(airport,date,year,month,day,wday,everything(),-(terminal)) %>%
  rename(passengers = all_total,flights = all_flights,booths = all_booths) %>%
  arrange(date,hour)

rm(ord2016, ord2017, ord2018, ord2019, ord2020)

ord

## # A tibble: 29,450 x 24
##    airport date        year month   day wday  hour  us_avg_wait us_max_wait
##    <chr>   <date>     <dbl> <ord> <int> <ord> <chr>       <dbl>       <dbl>
##  1 ORD     2016-01-01  2016 Jan       1 Fri   0000~           8          15
##  2 ORD     2016-01-01  2016 Jan       1 Fri   0400~          28          40
##  3 ORD     2016-01-01  2016 Jan       1 Fri   0500~          12          44
##  4 ORD     2016-01-01  2016 Jan       1 Fri   0700~           4          25
##  5 ORD     2016-01-01  2016 Jan       1 Fri   0800~           8          38
##  6 ORD     2016-01-01  2016 Jan       1 Fri   0900~           5          14
##  7 ORD     2016-01-01  2016 Jan       1 Fri   1000~          40          77
##  8 ORD     2016-01-01  2016 Jan       1 Fri   1100~           3          15
##  9 ORD     2016-01-01  2016 Jan       1 Fri   1200~           8          34
## 10 ORD     2016-01-01  2016 Jan       1 Fri   1300~          13          52
## # ... with 29,440 more rows, and 15 more variables: non_us_avg_wait <dbl>,
## #   non_us_max_wait <dbl>, all_avg_wait <dbl>, all_max_wait <dbl>,
## #   all_n_0..15 <dbl>, all_n_16..30 <dbl>, all_n_31..45 <dbl>,
## #   all_n_46..60 <dbl>, all_n_61..90 <dbl>, all_n_91..120 <dbl>,
## #   all_n_120.. <dbl>, all_excluded <dbl>, passengers <dbl>, flights <dbl>,
## #   booths <dbl>
…
There are 8 date miss from January 1, 2016 through June 30, 2020: 2016-03-07, 2016-03-08, 2016-03-09, 2018-05-08, 2019-10-28, 2019-10-29, 2019-10-30, 2020-02-08.

3

Calculate the total numbers of flights and passengers in each month and year and store this information in a table. Summarize this table to find the total number of passengers and flights in each year from 2016 - 2019. Which year has the most of each?

Solution

ord_nunth_year <- ord %>%
  group_by(month, year) %>%
  summarise(flights_sum = sum(flights), passenger_sum = sum(passengers))

ord_nunth_year

## # A tibble: 54 x 4
## # Groups:   month [12]
##    month  year flights_sum passenger_sum
##    <ord> <dbl>       <dbl>         <dbl>
##  1 Jan    2016        2200        382618
##  2 Jan    2017        2242        405301
##  3 Jan    2018        2392        438621
##  4 Jan    2019        2347        437663
##  5 Jan    2020        2276        440234
##  6 Feb    2016        2008        297269
##  7 Feb    2017        2025        304890
##  8 Feb    2018        2070        320974
##  9 Feb    2019        2098        340339
## 10 Feb    2020        1924        319854
## # ... with 44 more rows
…
